ELISA data analysis
…
Flag samples with high coefficient of variation (replicate
measurements that are too different from each other) or that fall
outside the standard curve (binding percentage is above 80%, or under
20%)

# flag samples with high CV (15%) or binding above 80% and under 20%
CV_threshold <- 15.0
uppBinLim <- 80.0
lowBinLim <- 20.0

Total samples outside the curve: 35 (some are blanks or NSB)

# A tibble: 35 × 3
   Well  Sample Category
   <chr> <fct>  <fct>   
 1 F3    P10    P10     
 2 F4    P10-5  P10     
 3 G4    P10-6  P10     
 4 H4    P10-6  P10     
 5 A5    P20    P20     
 6 B5    P20    P20     
 7 E6    T20    T20     
 8 F6    T20    T20     
 9 G6    T20-2  T20     
10 H6    T20-2  T20     
# ℹ 25 more rows
…
