ELISA data analysis
…
Flag samples with high coefficient of variation (replicate
measurements that are too different from each other) or that fall
outside the standard curve (binding percentage is above 80%, or under
20%)

# flag samples with high CV (15%) or binding above 80% and under 20%
CV_threshold <- 15.0
uppBinLim <- 80.0
lowBinLim <- 20.0

Total samples outside the curve: 23 (some are blanks or NSB)

# A tibble: 23 × 3
   Well  Sample Category
   <chr> <fct>  <fct>   
 1 A4    T100C  Tina    
 2 B4    T100C  Tina    
 3 C4    T100D  Tina    
 4 D4    T100D  Tina    
 5 C7    P25    Paloma  
 6 A10   Y100   Yemko   
 7 B10   Y100   Yemko   
 8 C10   Y100   Yemko   
 9 D10   Y75    Yemko   
10 E10   Y75    Yemko   
# ℹ 13 more rows
…
