Final vals analysis, test3
…
# Filter to include only good quality samples
data_ok <- data %>%
  filter(Failed_samples == "OK")

# Reshape data for plotting
data_long_ok <- data_ok %>%
  pivot_longer(
    cols = c(Final_pg.mg_A, Final_pg.mg_C),
    names_to = "Method",
    values_to = "Final_pg.mg"
  )

print(data_long_ok, n=5)

# A tibble: 60 × 28
  Sample Wells Raw.OD Binding.Perc Conc_pg.ml Ave_Conc_pg.ml CV.Perc    SD   SEM
  <chr>  <chr>  <dbl>        <dbl>      <dbl>          <dbl>   <dbl> <dbl> <dbl>
1 11     E5     0.939         71.6       497.           513.    4.5   23.1  16.3
2 11     E5     0.939         71.6       497.           513.    4.5   23.1  16.3
3 12     F5     0.422         30        2690           2728     1.92  52.5  37.1
4 12     F5     0.422         30        2690           2728     1.92  52.5  37.1
5 13     G5     0.451         32.1      2412           2477     3.68  91.1  64.4
# ℹ 55 more rows
# ℹ 19 more variables: Category <chr>, Weight_mg <dbl>, Buffer_nl <int>,
#   Spike <int>, TotalVol_well_ul <int>, SpikeVol_ul <int>, Dilution <int>,
#   Sample_comparable <int>, CV_categ <chr>, Binding.Perc_categ <chr>,
#   Failed_samples <chr>, Buffer_ml <dbl>, TotalVol_well_ml <dbl>,
#   SpikeVol_ml <dbl>, Ave_Conc_ug.dl <dbl>, Final_pg.mg_B <dbl>,
#   Spike_contribution <dbl>, Method <chr>, Final_pg.mg <dbl>
…
