Analysis of final values - test4
…
Paloma

2025-04-09

961ce6a

Paloma

2025-04-05

Precision

Method A (controlling for dilution and weight)

# A tibble: 22 × 4
   Group cv_BP mean_BP sd_BP
   <chr> <dbl>   <dbl> <dbl>
 1 TA1      NA    31.2    NA
 2 TA2      NA    39.5    NA
 3 TA3      NA    30.6    NA
 4 TA4      NA    40.4    NA
 5 TA5      NA    38.1    NA
 6 TB1      NA    34.2    NA
 7 TB2      NA    33.4    NA
 8 TB3      NA    29      NA
 9 TB4      NA    26.7    NA
10 TB5      NA    33.2    NA
# ℹ 12 more rows
…
2025-04-03

4bc45b5

Paloma

2025-04-02

e97ccaf

Paloma

2025-04-01

# A tibble: 22 × 4
   Group cv_BP mean_BP sd_BP
   <chr> <dbl>   <dbl> <dbl>
 1 TA1      NA    31.2    NA
 2 TA2      NA    39.5    NA
 3 TA3      NA    30.6    NA
 4 TA4      NA    40.4    NA
 5 TA5      NA    38.1    NA
 6 TB1      NA    34.2    NA
 7 TB2      NA    33.4    NA
 8 TB3      NA    29      NA
 9 TB4      NA    26.7    NA
10 TB5      NA    33.2    NA
# ℹ 12 more rows
…
